#Command:  
C:\WINDOWS\MICROSOFT.NET\ASSEMBLY\GAC_MSIL\SYSTEM.DRAWING\V4.0_4.0.0.0__B03F5F7F11D50A3A\SYSTEM.DRAWING.DLL
C:\WINDOWS\ASSEMBLY\NATIVEIMAGES_V4.0.30319_32\SYSTEM.DRAWING\3BA373BC0E75EEB7DB9C82FE06787344\SYSTEM.DRAWING.NI.DLL
C:\WINDOWS\ASSEMBLY\NATIVEIMAGES_V4.0.30319_32\SYSTEM.DRAWING\3BA373BC0E75EEB7DB9C82FE06787344\SYSTEM.DRAWING.NI.DLL.AUX
C:\WINDOWS\MICROSOFT.NET\ASSEMBLY\GAC_MSIL\SYSTEM.DRAWING\V4.0_4.0.0.0__B03F5F7F11D50A3A\SYSTEM.DRAWING.DLL
C:\WINDOWS\MICROSOFT.NET\ASSEMBLY\GAC_MSIL\SYSTEM.WINDOWS.FORMS\V4.0_4.0.0.0__B77A5C561934E089\SYSTEM.WINDOWS.FORMS.DLL
C:\WINDOWS\ASSEMBLY\NATIVEIMAGES_V4.0.30319_32\SYSTEM.WINDOWS.FORMS\7EE507B29B8C55D7E4C07798C42B24FD\SYSTEM.WINDOWS.FORMS.NI.DLL
C:\WINDOWS\ASSEMBLY\NATIVEIMAGES_V4.0.30319_32\SYSTEM.WINDOWS.FORMS\7EE507B29B8C55D7E4C07798C42B24FD\SYSTEM.WINDOWS.FORMS.NI.DLL.AUX
C:\WINDOWS\MICROSOFT.NET\ASSEMBLY\GAC_MSIL\SYSTEM.WINDOWS.FORMS\V4.0_4.0.0.0__B77A5C561934E089\SYSTEM.WINDOWS.FORMS.DLL
C:\WINDOWS\MICROSOFT.NET\ASSEMBLY\GAC_MSIL\ACCESSIBILITY\V4.0_4.0.0.0__B03F5F7F11D50A3A\ACCESSIBILITY.DLL
C:\WINDOWS\MICROSOFT.NET\ASSEMBLY\GAC_MSIL\SYSTEM.DEPLOYMENT\V4.0_4.0.0.0__B03F5F7F11D50A3A\SYSTEM.DEPLOYMENT.DLL
C:\WINDOWS\MICROSOFT.NET\ASSEMBLY\GAC_MSIL\SYSTEM.RUNTIME.SERIALIZATION.FORMATTERS.SOAP\V4.0_4.0.0.0__B03F5F7F11D50A3A\SYSTEM.RUNTIME.SERIALIZATION.FORMATTERS.SOAP.DLL
C:\WINDOWS\MICROSOFT.NET\ASSEMBLY\GAC_32\MSCORLIB\V4.0_4.0.0.0__B77A5C561934E089\MSCORLIB.DLL
C:\PROGRAM FILES (X86)\MICROSOFT VISUAL STUDIO 14.0\VC\BIN\X86_AMD64\VCTIP.EXE
C:\WINDOWS\MICROSOFT.NET\ASSEMBLY\GAC_MSIL\SYSTEM.NET.HTTP\V4.0_4.0.0.0__B03F5F7F11D50A3A\SYSTEM.NET.HTTP.DLL
C:\WINDOWS\ASSEMBLY\NATIVEIMAGES_V4.0.30319_32\SYSTEM.NET.HTTP\B5CB08672FE4301680721D205842A47E\SYSTEM.NET.HTTP.NI.DLL
C:\WINDOWS\ASSEMBLY\NATIVEIMAGES_V4.0.30319_32\SYSTEM.NET.HTTP\B5CB08672FE4301680721D205842A47E\SYSTEM.NET.HTTP.NI.DLL.AUX
C:\WINDOWS\MICROSOFT.NET\ASSEMBLY\GAC_MSIL\SYSTEM.NET.HTTP\V4.0_4.0.0.0__B03F5F7F11D50A3A\SYSTEM.NET.HTTP.DLL
